<?xml version="1.0" encoding="UTF-8" standalone="no"?>
<!-- Generator: Adobe Illustrator 16.0.0, SVG Export Plug-In . SVG Version: 6.00 Build 0)  -->
<!DOCTYPE svg  PUBLIC '-//W3C//DTD SVG 1.1//EN'  'http://www.w3.org/Graphics/SVG/1.1/DTD/svg11.dtd'>
<svg id="Layer_1" xmlns="http://www.w3.org/2000/svg" xml:space="preserve" height="29.25px" viewBox="0 0 28.833 29.25" width="28.833px" version="1.1" y="0px" x="0px" xmlns:xlink="http://www.w3.org/1999/xlink" enable-background="new 0 0 28.833 29.25">
<path d="m25.193 5.006c-0.12-0.425-0.308-0.874-0.544-1.345 0.449-0.614 0.969-1.229 1.417-1.914 0.142-0.189 0.142-0.401 0-0.614-0.565-0.826-1.513-1.676-2.29-2.337-0.189-0.189-0.449-0.189-0.66-0.024l-1.984 1.464c-0.377-0.189-0.825-0.354-1.229-0.52l-0.378-2.503c-0.021-0.26-0.213-0.425-0.495-0.425h-3.07c-0.281 0-0.472 0.165-0.52 0.401-0.188 0.803-0.283 1.724-0.377 2.527-0.425 0.143-0.85 0.308-1.228 0.544l-1.913-1.464c-0.118-0.094-0.283-0.166-0.377-0.166-0.472 0-2.313 2.055-2.668 2.502-0.19 0.238-0.167 0.38 0.023 0.639 0.495 0.662 0.991 1.276 1.464 1.913-0.213 0.449-0.379 0.803-0.521 1.275l-2.596 0.378c-0.213 0.047-0.378 0.308-0.378 0.543v3.046c0 0.235 0.165 0.448 0.401 0.496l2.503 0.4c0.118 0.425 0.331 0.874 0.542 1.323-0.449 0.638-0.944 1.228-1.416 1.912-0.142 0.214-0.119 0.425 0 0.613 0.589 0.827 1.511 1.678 2.29 2.361 0.213 0.191 0.449 0.191 0.662 0.048l1.983-1.464c0.402 0.189 0.827 0.354 1.228 0.498l0.377 2.524c0.024 0.213 0.237 0.426 0.521 0.426h3.069c0.282 0 0.427-0.166 0.495-0.399 0.213-0.806 0.307-1.726 0.4-2.527 0.427-0.143 0.852-0.33 1.252-0.52l1.912 1.487c0.119 0.096 0.263 0.121 0.379 0.121 0.449 0 2.316-2.082 2.671-2.53 0.141-0.188 0.116-0.379-0.05-0.614-0.496-0.685-0.99-1.298-1.465-1.983 0.215-0.378 0.379-0.757 0.545-1.228l2.526-0.377c0.235-0.025 0.397-0.282 0.397-0.474v-3.115c0-0.212-0.162-0.449-0.397-0.52l-2.501-0.378zm-7.722 5.951c-1.938 0-3.519-1.582-3.519-3.519 0-1.983 1.582-3.565 3.519-3.565 1.96 0 3.541 1.582 3.541 3.565 0 1.937-1.58 3.519-3.541 3.519z" display="none" fill="#aaa"/>
	<path d="m25.497 26.391h-22.162l1.237-19.025h5.069c0.071-0.373 0.176-0.795 0.346-1.208 0.857-2.096 2.472-3.298 4.43-3.298 1.959 0 3.575 1.203 4.431 3.299 0.144 0.351 0.255 0.741 0.345 1.207h5.067l1.237 19.025zm-21.094-1h20.027l-1.107-17.025h-17.813l-1.107 17.025zm7.287-18.024h5.453c-0.041-0.152-0.089-0.305-0.148-0.45-0.383-0.937-1.141-2.053-2.579-2.053-1.437 0-2.195 1.117-2.578 2.053-0.055 0.136-0.104 0.283-0.148 0.45z" fill="#aaa"/>
<g display="none">
	<path d="m17.459 7.463c-2.893 0-5.245-2.353-5.245-5.245s2.352-5.244 5.245-5.244c2.894 0 5.246 2.353 5.246 5.244 0.001 2.893-2.352 5.245-5.246 5.245z" display="inline" fill="#aaa"/>
</g>
<path d="m26.299 17.881h-8.746-8.888c0-4.869 3.949-8.818 8.818-8.818 4.871-0.001 8.816 3.949 8.816 8.818z" display="none" fill="#aaa"/>
</svg>
