<?xml version="1.0" encoding="utf-8"?>
<!-- Generator: Adobe Illustrator 21.0.2, SVG Export Plug-In . SVG Version: 6.00 Build 0)  -->
<svg version="1.1" id="Layer_1" xmlns="http://www.w3.org/2000/svg" xmlns:xlink="http://www.w3.org/1999/xlink" x="0px" y="0px"
	 viewBox="0 0 26 26" style="enable-background:new 0 0 26 26;" xml:space="preserve">
<style type="text/css">
	.st0{fill:#666666;}
</style>
<g>
	<path class="st0" d="M13,5.5c-4.2,0-7.5,3.4-7.5,7.5s3.4,7.5,7.5,7.5s7.5-3.4,7.5-7.5S17.2,5.5,13,5.5z M13,19.5
		c-3.6,0-6.5-2.9-6.5-6.5S9.4,6.5,13,6.5s6.5,2.9,6.5,6.5S16.6,19.5,13,19.5z"/>
	<rect x="12.3" y="11.4" class="st0" width="1.5" height="5.9"/>
	<rect x="12.2" y="8.7" class="st0" width="1.7" height="1.5"/>
</g>
</svg>
